472 -112 -136 -248
-8 -8 -48 48 -16 -56 -248 488 -8
-168 -480 -128 192
808 -24 144
-512 -176 -160 -16 -16 -24 8 -24
-768 -120 -24 56
-80 80 -696 56 -32 8
-600 384
-248 -192 -32 216 -48 8 -152 40
872 -16 88
-472 -280 184 -32
176 -16 -144 -328 184 -8 -88
624 -24 -224 -40 48
-184 208 -32 -56 16 -416 -32
896 -16 64
256 -8 64 -200 -112 312
-816 -40 -24 -8 32 -32
-744 -168 -48 8
-88 -280 -64 336 -8 -144 24
-968 16
-120 864
-704 -24 -24 8 -80 40 -16 40
-240 304 -64 -72 -80 8 -32 136
-792 192
-480 504
-896 88
-672 -56 -192 48
8 -72 -24 8 -144 8 -24 -224 104 -232 -64
-176 -16 -8 -24 -648 8 -16 -16 16
-600 384
